<svg width="25.600005" height="25.600001" xmlns="http://www.w3.org/2000/svg">

 <g>
  <title>background</title>
  <rect fill="none" id="canvas_background" height="402" width="582" y="-1" x="-1"/>
 </g>
 <g>
  <title>Layer 1</title>
  <path fill="#cccccc" fill-rule="evenodd" id="path3176" d="m11.92164,25.079408l0,-9.929778l-1.800458,0c-0.220795,0 -0.399982,-0.179224 -0.399982,-0.40005l0,-2.973176c0,-0.263496 0.19946,-0.394716 0.399982,-0.395779l1.801521,-0.001069l0,-1.600199c0,-0.843839 0.009601,-2.360829 0.799971,-3.328416c0.797832,-0.985727 1.902856,-1.64714 3.727845,-1.64714c2.811616,0 4.023297,0.375513 4.067031,0.389382c0.190928,0.060804 0.308256,0.254967 0.273053,0.452325l-0.550373,3.044648c-0.04267,0.230424 -0.27199,0.376576 -0.498114,0.315771c0.003196,0 -0.871432,-0.234695 -1.670333,-0.234695c-0.48638,0 -1.224484,0.104544 -1.224484,0.684881l0,1.920241l3.11134,0c0.233592,0 0.417052,0.20056 0.397849,0.433122l-0.243187,2.973169c-0.017069,0.208026 -0.189858,0.366984 -0.397856,0.366984l-2.868147,0l0,9.929778c0,0.220826 -0.180257,0.40005 -0.399982,0.40005l-4.125694,0c-0.220788,0 -0.399982,-0.179224 -0.399982,-0.40005zm4.125694,-0.400056l0,-9.929772c0,-0.219763 0.179194,-0.40005 0.399982,-0.40005l2.899083,0l0.178124,-2.173076l-3.077208,0c-0.220788,0 -0.399982,-0.179218 -0.399982,-0.40005l0,-2.320291c0,-0.557932 0.282655,-0.954787 0.692238,-1.189482c0.385052,-0.219756 0.870362,-0.295505 1.332211,-0.295505c0.456513,0 0.92476,0.066145 1.279946,0.13122l0.173865,0.034135l0.408514,-2.26055l-0.127992,-0.024537c-0.55998,-0.104544 -1.643669,-0.247495 -3.355597,-0.247495c-1.582866,0 -2.459633,0.551536 -3.108138,1.351635c-0.579176,0.709424 -0.619707,1.912775 -0.619707,2.823822l0,2.000249c0,0.220826 -0.180264,0.40005 -0.399982,0.40005l-1.801528,0l0,2.169875l1.800458,0c0.219725,0 0.399982,0.180287 0.399982,0.40005l0,9.929772l3.32573,0z"/>
  <path fill="#cccccc" fill-rule="evenodd" id="path3178" d="m0,23.261578l0,-20.923151c0,-1.289761 1.047423,-2.338431 2.338034,-2.338431l20.923937,0c1.289547,0 2.338034,1.04867 2.338034,2.338431l0,20.923151c0,1.290824 -1.048487,2.338425 -2.338034,2.338425l-20.923937,0c-1.29061,0 -2.338034,-1.047601 -2.338034,-2.338425zm24.800039,0l0,-20.923151c0,-0.847041 -0.691175,-1.538332 -1.538069,-1.538332l-20.923937,0c-0.847964,0 -1.538069,0.691291 -1.538069,1.538332l0,20.923151c0,0.848104 0.690105,1.538325 1.538069,1.538325l20.923937,0c0.846894,0 1.538069,-0.690221 1.538069,-1.538325z"/>
 </g>
</svg>